…
You can also “deselect” columns. For example, let’s say you didn’t want var1,var2, and var3 in your data but you wanted to keep everything else. Simply write the following code: select(data,-var1,-var2,-var3). The - will drop those columns and give all other columns in your data.

You can also do more complicated things (see below). For example, you can select all columns that have a particular prefix, suffix, or contain a particular word or certain letter sequences. Take a look at the example:

Example

First, because I am not terribly familiar with the BFI dataset from the psych package, I want to figure out which variables I actually need to look at personality. Luckily, the psych package provides a bfi.dictionary for this exact purpose.

bfi.dictionary %>% 
  rownames_to_column() %>% 
  rename(bfi_item = rowname) %>% 
  as_tibble()

## # A tibble: 28 x 8
##    bfi_item ItemLabel Item            Giant3  Big6      Little12  Keying IPIP100
##    <chr>    <fct>     <fct>           <fct>   <fct>     <fct>      <int> <fct>  
##  1 A1       q_146     Am indifferent… Cohesi… Agreeabl… Compassi…     -1 B5:A   
##  2 A2       q_1162    Inquire about … Cohesi… Agreeabl… Compassi…      1 B5:A   
##  3 A3       q_1206    Know how to co… Cohesi… Agreeabl… Compassi…      1 B5:A   
##  4 A4       q_1364    Love children.  Cohesi… Agreeabl… Compassi…      1 B5:A   
##  5 A5       q_1419    Make people fe… Cohesi… Agreeabl… Compassi…      1 B5:A   
##  6 C1       q_124     Am exacting in… Stabil… Conscien… Orderlin…      1 B5:C   
##  7 C2       q_530     Continue until… Stabil… Conscien… Orderlin…      1 B5:C   
##  8 C3       q_619     Do things acco… Stabil… Conscien… Orderlin…      1 B5:C   
##  9 C4       q_626     Do things in a… Stabil… Conscien… Industri…     -1 B5:C   
## 10 C5       q_1949    Waste my time.  Stabil… Conscien… Industri…     -1 B5:C   
## # … with 18 more rows

After searching throught the codebook, I was able to deduce that all the personality variables have capital letter prefix for the trait that they measure with a trailing digit indicating the item number. Now I can quickly select subsets of these items depending on my needs.

Select by variable name

Let’s say I just want to select a couple variables. This is the most straightforward way to use select. For example, I can select gender, age, and the 5 items that measure Agreeableness like so:

# Spell out the variables you want to select
bfi %>% select(gender, age, A1, A2, A3, A4, A5)

## # A tibble: 2,800 x 7
##    gender   age    A1    A2    A3    A4    A5
##     <int> <int> <int> <int> <int> <int> <int>
##  1      1    16     2     4     3     4     4
##  2      2    18     2     4     5     2     5
##  3      2    17     5     4     5     4     4
##  4      2    17     4     4     6     5     5
##  5      1    17     2     3     3     4     5
##  6      2    21     6     6     5     6     5
##  7      1    18     2     5     5     3     5
##  8      1    19     4     3     1     5     1
##  9      1    19     4     3     6     3     3
## 10      2    17     2     5     6     6     5
## # … with 2,790 more rows

Alternatively, let’s say I want everything but gender, age, and education:

# select everything but gender, age, and education 
bfi %>% select(-gender, -age, -education) 

## # A tibble: 2,800 x 25
##       A1    A2    A3    A4    A5    C1    C2    C3    C4    C5    E1    E2    E3
##    <int> <int> <int> <int> <int> <int> <int> <int> <int> <int> <int> <int> <int>
##  1     2     4     3     4     4     2     3     3     4     4     3     3     3
##  2     2     4     5     2     5     5     4     4     3     4     1     1     6
##  3     5     4     5     4     4     4     5     4     2     5     2     4     4
##  4     4     4     6     5     5     4     4     3     5     5     5     3     4
##  5     2     3     3     4     5     4     4     5     3     2     2     2     5
##  6     6     6     5     6     5     6     6     6     1     3     2     1     6
##  7     2     5     5     3     5     5     4     4     2     3     4     3     4
##  8     4     3     1     5     1     3     2     4     2     4     3     6     4
##  9     4     3     6     3     3     6     6     3     4     5     5     3    NA
## 10     2     5     6     6     5     6     5     6     2     1     2     2     4
## # … with 2,790 more rows, and 12 more variables: E4 <int>, E5 <int>, N1 <int>,
## #   N2 <int>, N3 <int>, N4 <int>, N5 <int>, O1 <int>, O2 <int>, O3 <int>,
## #   O4 <int>, O5 <int>

Or, what if you know you just want the first few columns of the dataset and you don’t want to type their names?

# select the first 5 colunmns
bfi %>% select(1:5) 

## # A tibble: 2,800 x 5
##       A1    A2    A3    A4    A5
##    <int> <int> <int> <int> <int>
##  1     2     4     3     4     4
##  2     2     4     5     2     5
##  3     5     4     5     4     4
##  4     4     4     6     5     5
##  5     2     3     3     4     5
##  6     6     6     5     6     5
##  7     2     5     5     3     5
##  8     4     3     1     5     1
##  9     4     3     6     3     3
## 10     2     5     6     6     5
## # … with 2,790 more rows
…
Arrange

Arranging columns is also very straight forward. Simply indicate which variable you want to use to arrange the data: arrange(data,column.to.arrange.by). You can specify a column wrapped in desc() to have it ordered in descending order instead.

Example

bfi %>% arrange(age)

## # A tibble: 2,800 x 28
##       A1    A2    A3    A4    A5    C1    C2    C3    C4    C5    E1    E2    E3
##    <int> <int> <int> <int> <int> <int> <int> <int> <int> <int> <int> <int> <int>
##  1     2     5     5     4     5     5     3     5     2     4     2     5     5
##  2     1     4     5    NA     5     4     1     6     5     3     1     1    NA
##  3     1     6     6     6     6     5     6     5     1     1     1     1     5
##  4     1     6     6     6     5     2     5     5     5     2     1     1     5
##  5    NA     6     4    NA     4     4    NA     6    NA     1     1     5    NA
##  6     1     6     6     5     2     4     2     2     5     4     6     1     5
##  7     4     4     2     4     4     4     4     4     3     4     3     5     2
##  8     2     5     3     2     2     4     2     5     5     5     6     6     4
##  9     1     6     6     6     6     6     6     6     1     1     1     1     6
## 10     4     5     5     4     2     2     2     4     3     1     5     5     2
## # … with 2,790 more rows, and 15 more variables: E4 <int>, E5 <int>, N1 <int>,
## #   N2 <int>, N3 <int>, N4 <int>, N5 <int>, O1 <int>, O2 <int>, O3 <int>,
## #   O4 <int>, O5 <int>, gender <int>, education <int>, age <int>

bfi %>% arrange(desc(age))

## # A tibble: 2,800 x 28
##       A1    A2    A3    A4    A5    C1    C2    C3    C4    C5    E1    E2    E3
##    <int> <int> <int> <int> <int> <int> <int> <int> <int> <int> <int> <int> <int>
##  1     1     3     4     4     4     4     1     5     3     2     6     2     1
##  2     4     3     1     1     5     6     6     4     1     1     6     2     6
##  3     1     6     6     4     6     2     4     4     1     2     2     1     6
##  4     2     4     5     6     6     5     3     5     2     2     2     4     4
##  5     1     5     6     5     6     4     3     2     4     5     2     1     2
##  6     2     4     4     3     4     3     2     3     4     6     6     5     4
##  7     2     4     4     4     4     5     5     4     1     2     4     4     4
##  8     1     4     3     6     5     5     4     2     4     5     5     5     1
##  9     2     6     6     6     5     5     5     5     1     3     2     2     5
## 10     5     4     2     6     4     5     6     4     2     5     1     6     4
## # … with 2,790 more rows, and 15 more variables: E4 <int>, E5 <int>, N1 <int>,
## #   N2 <int>, N3 <int>, N4 <int>, N5 <int>, O1 <int>, O2 <int>, O3 <int>,
## #   O4 <int>, O5 <int>, gender <int>, education <int>, age <int>
…
Filtering data is an operation that you will undoubtedly need to use all the time. You filter data anytime you need to create some subset of a larger data set. To perform this operation you need to supply filter() with a logical expression. This expression will be applied to the dataset and only rows that meet your criteria (i.e. evaluate to TRUE after your logical expression), will be kept. Take a look at the example:

Example

This dataset is pretty big (N = 2800). I might want to use everyone in this dataset but it’s reasonable to see how certain research questions may not require the entire sample. For example, maybe I only want to look at adults who are younger than 65. This could be because 65 and younger adults are likely not retired, or maybe after 40 is a meaningful cutoff for certain questions.

Whatever the case, you can quickly subset your data using filter(). Below I use the expression Age < 40 inside my call to filter(). This expression will help filter() figure out which individuals are younger than 65 and only keep those individuals.

bfi %>% 
  filter(age <= 40) %>% 
  select(age,everything()) %>% 
  arrange(desc(age))

## # A tibble: 2,358 x 28
##      age    A1    A2    A3    A4    A5    C1    C2    C3    C4    C5    E1    E2
##    <int> <int> <int> <int> <int> <int> <int> <int> <int> <int> <int> <int> <int>
##  1    40     1     5     5     6     5     4     4     4     3     4     4     3
##  2    40     1     5     5     5     2     6    NA     6     1     1     3     2
##  3    40     1     5    NA     5     6     6     6     1     1     1     6     1
##  4    40     1     6     4     6     6     5     4     5     1     2     5     1
##  5    40     4     4     4    NA     5     4     4     4    NA     3     4     2
##  6    40     1     5     5     6     5     5     4     4     4     4     1     2
##  7    40     3     5     5     6     5     5     4     5     2     3     2     4
##  8    40     3     6     5     6     6     5     6     5     1     3     1     2
##  9    40     1     6     6     6     6     1     5     6     1     1     1     6
## 10    40     1     6     4     6     6     5     6     4     3     4     3     2
## # … with 2,348 more rows, and 15 more variables: E3 <int>, E4 <int>, E5 <int>,
## #   N1 <int>, N2 <int>, N3 <int>, N4 <int>, N5 <int>, O1 <int>, O2 <int>,
## #   O3 <int>, O4 <int>, O5 <int>, gender <int>, education <int>
…
To see how mutate() works, let’s create composite scores for each personality trait.

bfi %>% 
  rowwise() %>% # make sure to calculate means across rows not columns
  mutate(
    Neuroticism       = mean(c(A1,A2,A3,A4,A5),na.rm=T),
    Extraversion      = mean(c(C1,C2,C3,C4,C5),na.rm=T),
    Openness          = mean(c(E1,E2,E3,E4,E5),na.rm=T),
    Conscientiousness = mean(c(N1,N2,N3,N4,N5),na.rm=T),
    Agreeableness     = mean(c(O1,O2,O3,O4,O5),na.rm=T)
  ) %>% 
  select(Neuroticism, Extraversion, Openness, Conscientiousness, Agreeableness)

## # A tibble: 2,800 x 5
## # Rowwise: 
##    Neuroticism Extraversion Openness Conscientiousness Agreeableness
##          <dbl>        <dbl>    <dbl>             <dbl>         <dbl>
##  1         3.4          3.2     3.4                2.8           3.8
##  2         3.6          4       3                  3.8           3.2
##  3         4.4          4       3.8                3.6           3.6
##  4         4.8          4.2     4                  2.8           3.6
##  5         3.4          3.6     3.6                3.2           3.2
##  6         5.6          4.4     4                  3             3.8
##  7         4            3.6     4.2                1.4           3.8
##  8         2.8          3       3.2                4.2           3.4
##  9         3.8          4.8     3.75               3.6           5  
## 10         4.8          4       3.6                4.2           3.6
## # … with 2,790 more rows
…
Now that you have been introduced to the most important single-table dplyr verbs, let’s see how we might complete all of these steps in a single chain of function calls:

bfi %>% 
  filter(age <= 40) %>% 
  rowwise() %>% 
  mutate(Neuroticism       = mean(c(A1,A2,A3,A4,A5),na.rm=T),
         Extraversion      = mean(c(C1,C2,C3,C4,C5),na.rm=T),
         Openness          = mean(c(E1,E2,E3,E4,E5),na.rm=T),
         Conscientiousness = mean(c(N1,N2,N3,N4,N5),na.rm=T),
         Agreeableness     = mean(c(O1,O2,O3,O4,O5),na.rm=T)) %>% 
  select(age,education,gender,Neuroticism, Extraversion, Openness, Conscientiousness, Agreeableness) %>% 
  rename_all(tolower) %>% 
  arrange(desc(age))

## # A tibble: 2,358 x 8
## # Rowwise: 
##      age education gender neuroticism extraversion openness conscientiousne…
##    <int>     <int>  <int>       <dbl>        <dbl>    <dbl>            <dbl>
##  1    40         3      2        4.4          3.8      3.8              2.6 
##  2    40         5      2        3.6          3.5      2.8              4.25
##  3    40         3      2        4.25         3        2.8              2   
##  4    40         3      1        4.6          3.4      4.2              1.4 
##  5    40         5      2        4.25         3.75     3.75             4   
##  6    40         1      2        4.4          4.2      3.4              4.4 
##  7    40         3      2        4.8          3.8      3.8              4.6 
##  8    40         2      2        5.2          4        4                2.6 
##  9    40         3      2        5            2.8      3.6              1.6 
## 10    40         3      2        4.6          4.4      3.6              5.8 
## # … with 2,348 more rows, and 1 more variable: agreeableness <dbl>
…
# make ID numbers for the 1525 observations in the ability data based on the BFI IDs
ability_fake_ids <- ability %>% 
  mutate(id = c(sample(bfi_fake_ids$id,1000,replace = F),3001:3525)) # make some IDs from bfi and some new ones

Mutating Joins

Remember, mutating joins merge together two datasets. They are ‘mutating’ because the resulting merged dataset will contain more variables.

Inner Join

Inner joins (using inner_join()) will always return a data set that contains observations that exist in both data sets. As such, if I do an inner_join() using the BFI and ability data, the newly joined dataset should only contain observations that match based on ID numbers:

inner_join(bfi_fake_ids, ability_fake_ids, by = c("id" = "id"))

## # A tibble: 1,000 x 45
##       A1    A2    A3    A4    A5    C1    C2    C3    C4    C5    E1    E2    E3
##    <int> <int> <int> <int> <int> <int> <int> <int> <int> <int> <int> <int> <int>
##  1     2     4     3     4     4     2     3     3     4     4     3     3     3
##  2     4     3     6     3     3     6     6     3     4     5     5     3    NA
##  3     5     5     5     6     4     5     4     3     2     2     3     3     3
##  4     5     5     5     6     6     4     4     4     2     1     2     2     4
##  5     4     5     2     2     1     5     5     5     2     2     3     4     3
##  6     4     6     6     2     5     4     4     4     4     4     1     2     5
##  7     4     4     5     4     3     5     4     5     4     6     1     2     4
##  8     1     6     6     1     5     5     4     4     2     3     1     2     4
##  9     2     4     4     4     3     6     5     6     1     1     2     4     4
## 10     2     5     1     3     5     5     4     5     2     5     1     2     6
## # … with 990 more rows, and 32 more variables: E4 <int>, E5 <int>, N1 <int>,
## #   N2 <int>, N3 <int>, N4 <int>, N5 <int>, O1 <int>, O2 <int>, O3 <int>,
## #   O4 <int>, O5 <int>, gender <int>, education <int>, age <int>, id <int>,
## #   reason.4 <dbl>, reason.16 <dbl>, reason.17 <dbl>, reason.19 <dbl>,
## #   letter.7 <dbl>, letter.33 <dbl>, letter.34 <dbl>, letter.58 <dbl>,
## #   matrix.45 <dbl>, matrix.46 <dbl>, matrix.47 <dbl>, matrix.55 <dbl>,
## #   rotate.3 <dbl>, rotate.4 <dbl>, rotate.6 <dbl>, rotate.8 <dbl>

Left & Right Join

Left Join

A left_join() keeps all observations from the data.frame on the left and grabs only the observations from the right data.frame that match the left:

left_join(bfi_fake_ids, ability_fake_ids, by = c("id" = "id"))

## # A tibble: 2,800 x 45
##       A1    A2    A3    A4    A5    C1    C2    C3    C4    C5    E1    E2    E3
##    <int> <int> <int> <int> <int> <int> <int> <int> <int> <int> <int> <int> <int>
##  1     2     4     3     4     4     2     3     3     4     4     3     3     3
##  2     2     4     5     2     5     5     4     4     3     4     1     1     6
##  3     5     4     5     4     4     4     5     4     2     5     2     4     4
##  4     4     4     6     5     5     4     4     3     5     5     5     3     4
##  5     2     3     3     4     5     4     4     5     3     2     2     2     5
##  6     6     6     5     6     5     6     6     6     1     3     2     1     6
##  7     2     5     5     3     5     5     4     4     2     3     4     3     4
##  8     4     3     1     5     1     3     2     4     2     4     3     6     4
##  9     4     3     6     3     3     6     6     3     4     5     5     3    NA
## 10     2     5     6     6     5     6     5     6     2     1     2     2     4
## # … with 2,790 more rows, and 32 more variables: E4 <int>, E5 <int>, N1 <int>,
## #   N2 <int>, N3 <int>, N4 <int>, N5 <int>, O1 <int>, O2 <int>, O3 <int>,
## #   O4 <int>, O5 <int>, gender <int>, education <int>, age <int>, id <int>,
## #   reason.4 <dbl>, reason.16 <dbl>, reason.17 <dbl>, reason.19 <dbl>,
## #   letter.7 <dbl>, letter.33 <dbl>, letter.34 <dbl>, letter.58 <dbl>,
## #   matrix.45 <dbl>, matrix.46 <dbl>, matrix.47 <dbl>, matrix.55 <dbl>,
## #   rotate.3 <dbl>, rotate.4 <dbl>, rotate.6 <dbl>, rotate.8 <dbl>
…
## [1] 2800

# data on the left hand side
bfi_fake_ids %>% nrow()

## [1] 2800

Right Join

A right_join() keeps all observations from the data.frame on the right and grabs only the observations from the left data.frame that match the right:

right_join(bfi_fake_ids, ability_fake_ids, by = c("id" = "id"))

## # A tibble: 1,525 x 45
##       A1    A2    A3    A4    A5    C1    C2    C3    C4    C5    E1    E2    E3
##    <int> <int> <int> <int> <int> <int> <int> <int> <int> <int> <int> <int> <int>
##  1     2     4     3     4     4     2     3     3     4     4     3     3     3
##  2     4     3     6     3     3     6     6     3     4     5     5     3    NA
##  3     5     5     5     6     4     5     4     3     2     2     3     3     3
##  4     5     5     5     6     6     4     4     4     2     1     2     2     4
##  5     4     5     2     2     1     5     5     5     2     2     3     4     3
##  6     4     6     6     2     5     4     4     4     4     4     1     2     5
##  7     4     4     5     4     3     5     4     5     4     6     1     2     4
##  8     1     6     6     1     5     5     4     4     2     3     1     2     4
##  9     2     4     4     4     3     6     5     6     1     1     2     4     4
## 10     2     5     1     3     5     5     4     5     2     5     1     2     6
## # … with 1,515 more rows, and 32 more variables: E4 <int>, E5 <int>, N1 <int>,
## #   N2 <int>, N3 <int>, N4 <int>, N5 <int>, O1 <int>, O2 <int>, O3 <int>,
## #   O4 <int>, O5 <int>, gender <int>, education <int>, age <int>, id <int>,
## #   reason.4 <dbl>, reason.16 <dbl>, reason.17 <dbl>, reason.19 <dbl>,
## #   letter.7 <dbl>, letter.33 <dbl>, letter.34 <dbl>, letter.58 <dbl>,
## #   matrix.45 <dbl>, matrix.46 <dbl>, matrix.47 <dbl>, matrix.55 <dbl>,
## #   rotate.3 <dbl>, rotate.4 <dbl>, rotate.6 <dbl>, rotate.8 <dbl>
…
