…
  })

Here is an example of the first element of this list:

multiverse_data[[1]]

## $n
## [1] 500
## 
## $data
## # A tibble: 500 x 10
##       id intercept iv_unp ex_sample ex_csd ex_sped ex_att ex_imp dv_std  dv_eco
##    <int>     <dbl>  <dbl>     <int>  <dbl>   <int>  <int>  <int>  <dbl>   <dbl>
##  1     1     1.76  -1.42          1  2.07        0      0      0  2.02   5.05  
##  2     2     2.13  -2.47          0  1.65        0      0      0  4.82   4.53  
##  3     3    -0.328  0.485         0  1.19        0      0      0  1.49  -0.0753
##  4     4    -1.36  -0.938         1  0.431       0      0      0 -2.27  -5.54  
##  5     5     1.82   3.33          0  0.713       0      0      0  0.228  2.36  
##  6     6    -5.45  -0.163         1  1.44        0      0      0 -4.52  -4.39  
##  7     7     1.89   0.220         0 -0.677       0      0      0 -0.554  0.862 
##  8     8    -0.829  0.876         0 -1.80        0      0      0 -0.286 -0.365 
##  9     9    -0.852 -2.15          0 -0.205       0      0      0 -2.57  -2.90  
## 10    10    -2.76  -0.234         1  1.29        0      0      0 -3.04  -5.08  
## # … with 490 more rows
## 
## $decisions
…
